<svg id="PS" xmlns="http://www.w3.org/2000/svg" width="133" height="133" viewBox="0 0 133 133">
  <metadata><?xpacket begin="﻿" id="W5M0MpCehiHzreSzNTczkc9d"?>
<x:xmpmeta xmlns:x="adobe:ns:meta/" x:xmptk="Adobe XMP Core 5.6-c138 79.159824, 2016/09/14-01:09:01        ">
   <rdf:RDF xmlns:rdf="http://www.w3.org/1999/02/22-rdf-syntax-ns#">
      <rdf:Description rdf:about=""/>
   </rdf:RDF>
</x:xmpmeta>
                                                                                                    
                                                                                                    
                                                                                                    
                                                                                                    
                                                                                                    
                                                                                                    
                                                                                                    
                                                                                                    
                                                                                                    
                                                                                                    
                                                                                                    
                                                                                                    
                                                                                                    
                                                                                                    
                                                                                                    
                                                                                                    
                                                                                                    
                                                                                                    
                                                                                                    
                                                                                                    
                           
<?xpacket end="w"?></metadata>
<defs>
    <style>
      .cls-1 {
        fill: #04407e;
      }

      .cls-2 {
        fill: #8fcbfe;
        fill-rule: evenodd;
      }
    </style>
  </defs>
  <rect class="cls-1" width="133" height="133"/>
  <path id="Ps-2" data-name="Ps" class="cls-2" d="M181.43,1203.15q6.912,0,10.822-3.31a11.25,11.25,0,0,0,3.91-9.06,12.78,12.78,0,0,0-1.788-6.75,11.792,11.792,0,0,0-5.111-4.58,17.367,17.367,0,0,0-7.7-1.61H166.4v39.09h8.007v-13.78h7.019Zm-7.019-18.79h7.339a6.286,6.286,0,0,1,4.644,1.83,6.464,6.464,0,0,1,1.681,4.64,5.494,5.494,0,0,1-1.668,4.3,7.015,7.015,0,0,1-4.844,1.5h-7.152v-12.27Zm41.247,26.75a5.515,5.515,0,0,1-3.349.85,6.032,6.032,0,0,1-3.79-1.1,4.054,4.054,0,0,1-1.521-3.17h-7.313a8.316,8.316,0,0,0,1.6,4.9,10.864,10.864,0,0,0,4.417,3.57,15.167,15.167,0,0,0,6.446,1.3,14.542,14.542,0,0,0,8.754-2.45,7.593,7.593,0,0,0,3.389-6.43q0-5.565-6.112-7.81a33.017,33.017,0,0,0-4.857-1.31,12.284,12.284,0,0,1-4.1-1.37,2.381,2.381,0,0,1-1.214-2.08,2.8,2.8,0,0,1,1.067-2.25,4.6,4.6,0,0,1,3.016-.89,4.48,4.48,0,0,1,3.336,1.09,3.753,3.753,0,0,1,1.068,2.75h7.713a8.213,8.213,0,0,0-3.3-6.76,13.77,13.77,0,0,0-8.794-2.61,12.853,12.853,0,0,0-8.34,2.59,8,8,0,0,0-3.19,6.46q0,6.63,10.3,8.81a15.436,15.436,0,0,1,4.5,1.46,2.491,2.491,0,0,1,1.4,2.24A2.627,2.627,0,0,1,215.658,1211.11Z" transform="translate(-128 -1130)"/>
</svg>
