<svg id="employment-bg" xmlns="http://www.w3.org/2000/svg" xmlns:xlink="http://www.w3.org/1999/xlink" width="1112.504" height="326" viewBox="0 0 1112.504 326">
  <metadata><?xpacket begin="﻿" id="W5M0MpCehiHzreSzNTczkc9d"?>
<x:xmpmeta xmlns:x="adobe:ns:meta/" x:xmptk="Adobe XMP Core 5.6-c138 79.159824, 2016/09/14-01:09:01        ">
   <rdf:RDF xmlns:rdf="http://www.w3.org/1999/02/22-rdf-syntax-ns#">
      <rdf:Description rdf:about=""/>
   </rdf:RDF>
</x:xmpmeta>
                                                                                                    
                                                                                                    
                                                                                                    
                                                                                                    
                                                                                                    
                                                                                                    
                                                                                                    
                                                                                                    
                                                                                                    
                                                                                                    
                                                                                                    
                                                                                                    
                                                                                                    
                                                                                                    
                                                                                                    
                                                                                                    
                                                                                                    
                                                                                                    
                                                                                                    
                                                                                                    
                           
<?xpacket end="w"?></metadata>
<defs>
    <style>
      .cls-1 {
        fill: #f2ecd7;
      }

      .cls-10, .cls-2 {
        fill: #38383c;
      }

      .cls-3 {
        fill: #bbe4f6;
      }

      .cls-4 {
        fill: #fff;
      }

      .cls-10, .cls-11, .cls-13, .cls-14, .cls-15, .cls-4, .cls-5, .cls-6, .cls-7, .cls-8, .cls-9 {
        fill-rule: evenodd;
      }

      .cls-5 {
        fill: #ffeb3b;
      }

      .cls-6 {
        fill: #ebe2c4;
      }

      .cls-7 {
        fill: #80a225;
      }

      .cls-8 {
        fill: #5f7c11;
      }

      .cls-9 {
        fill: #f3c99f;
      }

      .cls-11 {
        fill: #cdb196;
        stroke: #fff;
        stroke-width: 5.648px;
      }

      .cls-12 {
        filter: url(#filter);
      }

      .cls-13 {
        fill: #f5f4f2;
        stroke: #38383c;
        stroke-width: 11.458px;
      }

      .cls-14 {
        fill: #a35c50;
      }

      .cls-15 {
        fill: #dbdbdb;
      }
    </style>
    <filter id="filter" filterUnits="userSpaceOnUse">
      <feOffset result="offset" dy="12" in="SourceAlpha"/>
      <feGaussianBlur result="blur"/>
      <feFlood result="flood" flood-color="#242424" flood-opacity="0.1"/>
      <feComposite result="composite" operator="in" in2="blur"/>
      <feBlend result="blend" in="SourceGraphic"/>
    </filter>
  </defs>
  <rect id="Rectangle_8_copy" data-name="Rectangle 8 copy" class="cls-1" y="0.5" width="1112.504" height="325"/>
  <rect id="Color_Fill_3" data-name="Color Fill 3" class="cls-2" x="574.844" y="0.5" width="454" height="244.5"/>
  <rect class="cls-3" x="589.844" y="0.5" width="424" height="228.688"/>
  <path id="Color_Fill_2_copy" data-name="Color Fill 2 copy" class="cls-4" d="M924.051,149.36H912.813a7.692,7.692,0,0,1-4.376-1.36H1023v1.36h-19.41a7.68,7.68,0,1,0,0,15.359H1023v13.346a5.88,5.88,0,0,0,0,7.978V195H952.254a3.511,3.511,0,1,1,0-7.022h17.627a7.9,7.9,0,1,0,0-15.8H870.729a5.705,5.705,0,1,1,0-11.41h53.322A5.705,5.705,0,1,0,924.051,149.36Zm-212.8,18.647a5,5,0,0,1-5,5.007h-25a11.267,11.267,0,0,0,0,22.533H821.875a8.137,8.137,0,0,1,0,16.273H746.25a8.137,8.137,0,0,0,0,16.273h15.937a10.954,10.954,0,0,1,0,21.907H599V228.093h34.437a10.953,10.953,0,0,0,0-21.906H599V189.913h0.687A8.449,8.449,0,0,0,600,173.022c0.1,0,.208-0.008.312-0.008H599V163H706.25A5,5,0,0,1,711.25,168.007Z" transform="translate(-9.156 -148)"/>
  <path class="cls-5" d="M871,256a72.014,72.014,0,0,1-62.65-107.5h125.3A72.014,72.014,0,0,1,871,256Z" transform="translate(-9.156 -148)"/>
  <path id="Shape_3_copy_2" data-name="Shape 3 copy 2" class="cls-6" d="M29,149h2V473H29V149Zm523,1h2V474h-2V150Zm523,0h2V474h-2V150Z" transform="translate(-9.156 -148)"/>
  <path class="cls-7" d="M599,377.176V289l69-69L825.005,377l-0.176.176H599Z" transform="translate(-9.156 -148)"/>
  <path id="Color_Fill_2" data-name="Color Fill 2" class="cls-8" d="M791,256L912.181,377.176H669.819Z" transform="translate(-9.156 -148)"/>
  <g id="ax">
    <g id="Group_2_copy" data-name="Group 2 copy">
      <path id="Color_Fill_8" data-name="Color Fill 8" class="cls-9" d="M875.816,438.479c7.351,2.457,10.551,6.676,10.551,6.676l-3.93,16.947a147.893,147.893,0,0,1-25.072-9.4l7.108-16.581A59.49,59.49,0,0,1,875.816,438.479Z" transform="translate(-9.156 -148)"/>
      <path id="Color_Fill_8_copy" data-name="Color Fill 8 copy" class="cls-9" d="M979.1,438.784c-7.4,2.484-10.625,6.748-10.625,6.748l3.957,17.13a148.513,148.513,0,0,0,25.249-9.5L990.523,436.4A59.764,59.764,0,0,0,979.1,438.784Z" transform="translate(-9.156 -148)"/>
      <path id="Color_Fill_7" data-name="Color Fill 7" class="cls-10" d="M927.336,394.9c0.058-.19.09-0.291,0.09-0.291l0.545,0.138,0.577-.138s0.036,0.108.1,0.311l24.937,6.347s29.216,6.851,34.125,18.563l6.981,16.659a69.344,69.344,0,0,0-15.264,2.663c-7.363,2.451-9.972,6.659-9.972,6.659l3.94,16.32c-18.388,5.038-58.369,9.118-91.559-.013l3.933-16.362s-2.6-4.219-9.955-6.676a68.974,68.974,0,0,0-15.239-2.671l6.97-16.7c4.9-11.742,34.068-18.61,34.068-18.61l24.895-6.364c0.066-.2.1-0.312,0.1-0.312l0.576,0.139,0.544-.139s0.032,0.1.09,0.292Z" transform="translate(-9.156 -148)"/>
      <path class="cls-11" d="M927.948,387.8c9.59,0,17.365,7.45,17.365,16.64s-7.775,16.64-17.365,16.64-17.365-7.45-17.365-16.64S918.357,387.8,927.948,387.8Z" transform="translate(-9.156 -148)"/>
      <g class="cls-12">
        <path id="Ellipse_3_copy" data-name="Ellipse 3 copy" class="cls-9" d="M852.389,331.681c7.356,0.231,13.583,9.094,14.12,19.044,0.5,9.2-4.088,16.479-10.394,16.878-6.524.414-13.137-6.612-14.673-16.4C839.772,340.57,844.739,331.441,852.389,331.681Zm153.181-1.1c-7.36.331-13.459,9.308-13.846,19.3-0.358,9.237,4.342,16.477,10.656,16.792,6.54,0.327,13.06-6.813,14.45-16.649C1018.34,339.328,1013.23,330.237,1005.57,330.582Z" transform="translate(-9.156 -148)"/>
        <path id="Color_Fill_6" data-name="Color Fill 6" class="cls-10" d="M873.8,393.891l-14.8-19.4-7-12.822-10.2-55.145s-11.14-10.943-8.568-36.3S851.208,235.4,851.208,235.4a11.278,11.278,0,0,0,3.342,3.282,15.158,15.158,0,0,0,4.988,1.619s14.506-24.369,39.554-33.319c21.879-7.818,54.731-.372,54.731-0.372a29.347,29.347,0,0,0-6.584,6.655c-2.458,3.733-1.622,4.87-1.622,4.87s20.8,2.936,39.88,9.744c14.314,5.107,28.373,22.943,28.373,22.943s9.27,12.452,8.45,21.426c-0.55,6.1-15.86,88.4-15.86,88.4l-20.39,20.78-9.69,10.792Z" transform="translate(-9.156 -148)"/>
        <path id="Rounded_Rectangle_1" data-name="Rounded Rectangle 1" class="cls-9" d="M867.978,288.618l121.428-.824A16.464,16.464,0,0,1,1006,304.122l0.35,45.966c0.32,42.542-34.085,62.637-76.713,62.926s-77.338-19.339-77.66-61.883l-0.347-45.962A16.44,16.44,0,0,1,867.978,288.618Z" transform="translate(-9.156 -148)"/>
        <path id="Color_Fill_7_copy" data-name="Color Fill 7 copy" class="cls-10" d="M866.373,335.381c5.135-.034,10.219-4.065,10.219-4.065a35,35,0,0,1-3.453-8.6c-0.71-3.139.528-11.782,0.528-11.782a29.032,29.032,0,0,0,12.771,5.449c6.041,0.976,13.74-2.473,13.74-2.473-0.008.113-3.611-4.483-4.529-12.036a32.12,32.12,0,0,1,.417-10.476,350.45,350.45,0,0,0,42.442,11.783,301.768,301.768,0,0,0,40.7,4.9s5.348,18.091,13.735,24.049c4.907,3.486,8.5,3.392,8.5,3.392l-2.684,43.87,5.834-3.94,13.95-93.705-90.509-19.878-86.245,33.753,9.31,68.195s2.427,8.476,3.257,12.364,5.122,5.138,5.122,5.138-0.763-19.921-1.868-33.676Z" transform="translate(-9.156 -148)"/>
        <path id="Rounded_Rectangle_2" data-name="Rounded Rectangle 2" class="cls-13" d="M953.518,326.258l28.885-.2a10.692,10.692,0,0,1,10.763,10.61l0.114,15.094a10.672,10.672,0,0,1-10.6,10.755l-28.885.2a10.693,10.693,0,0,1-10.763-10.61l-0.114-15.1A10.671,10.671,0,0,1,953.518,326.258Z" transform="translate(-9.156 -148)"/>
        <path class="cls-10" d="M914.136,339.756l28.551-.194,0.2,10.617-28.428.086Z" transform="translate(-9.156 -148)"/>
        <path id="Rounded_Rectangle_2_copy" data-name="Rounded Rectangle 2 copy" class="cls-13" d="M873.575,326.8l28.885-.2a10.692,10.692,0,0,1,10.763,10.61l0.115,15.094a10.673,10.673,0,0,1-10.6,10.755l-28.885.2a10.692,10.692,0,0,1-10.763-10.61l-0.114-15.094A10.672,10.672,0,0,1,873.575,326.8Z" transform="translate(-9.156 -148)"/>
        <circle class="cls-2" cx="956.109" cy="200.688" r="4.89"/>
        <path class="cls-14" d="M954.663,378.829c0.014,11.765-12.294,21.317-27.492,21.335s-27.528-9.5-27.542-21.269Z" transform="translate(-9.156 -148)"/>
        <path id="Ellipse_4_copy" data-name="Ellipse 4 copy" class="cls-10" d="M890.975,344.319a4.878,4.878,0,1,1-4.853,4.911A4.889,4.889,0,0,1,890.975,344.319Z" transform="translate(-9.156 -148)"/>
      </g>
    </g>
    <path id="Rectangle_2_copy" data-name="Rectangle 2 copy" class="cls-15" d="M838.516,416.1H1010.2l-4.77,57.9H843.285Z" transform="translate(-9.156 -148)"/>
  </g>
</svg>
